{
	"url": "https://www.adika.com/",
	"cat_schema": {"cat_level": 2, "level1": "cat1", "level2": "cat2"},
	"label_info": [
		{"url_part": "tops", "label": "tops", "cat_info": {"cat1": "tops", "cat2": ""}},
		{"url_part": "crop-tops", "label": "crop top", "cat_info": {"cat1": "tops", "cat2": "crop top"}},
		{"url_part": "jumpsuit-bodysuit-1", "label": "jumpsuits & bodysuits", "cat_info": {"cat1": "tops", "cat2": "jumpsuits & bodysuits"}},
		{"url_part": "graphic-tees", "label": "graphic tees", "cat_info": {"cat1": "tops", "cat2": "graphic tees"}},
		{"url_part": "tops/tees", "label": "t-shirts", "cat_info": {"cat1": "tops", "cat2": "t-shirts"}},
		{"url_part": "tops/oversize", "label": "oversized tops", "cat_info": {"cat1": "tops", "cat2": "oversized tops"}},
		{"url_part": "sweatshirts", "label": "sweatshirts", "cat_info": {"cat1": "bottoms", "cat2": "sweatshirts"}},
		{"url_part": "pants", "label": "bottoms", "cat_info": {"cat1": "bottoms", "cat2": ""}},
		{"url_part": "jeans", "label": "jeans", "cat_info": {"cat1": "bottoms", "cat2": "jeans"}},
		{"url_part": "pants-1", "label": "pants", "cat_info": {"cat1": "bottoms", "cat2": "pants"}},
		{"url_part": "shorts", "label": "shorts", "cat_info": {"cat1": "bottoms", "cat2": "shorts"}},
		{"url_part": "skirts", "label": "skirts", "cat_info": {"cat1": "bottoms", "cat2": "skirts"}},
		{"url_part": "sweatpants", "label": "sweatpants", "cat_info": {"cat1": "bottoms", "cat2": "sweatpants"}},
		{"url_part": "shoes-1", "label": "shoes", "cat_info": {"cat1": "shoes", "cat2": ""}},
		{"url_part": "dresses-skirts-1", "label": "dresses & skirts", "cat_info": {"cat1": "dresses & skirts", "cat2": ""}},
		{"url_part": "swim-beachwear", "label": "swim & beachwear", "cat_info": {"cat1": "swim & seachwear", "cat2": ""}},
		{"url_part": "ripped-jeans", "label": "denim", "cat_info": {"cat1": "denim", "cat2": ""}},
		{"url_part": "coats-jackets-1", "label": "coats & jackets", "cat_info": {"cat1": "tops", "cat2": "coats & jackets"}},
		{"url_part": "young", "label": "young", "cat_info": {"cat1": "young", "cat2": ""}},
		{"url_part": "accessories-1", "label": "accessories", "cat_info": {"cat1": "accessories", "cat2": ""}},
		{"url_part": "jewelry", "label": "jewelry", "cat_info": {"cat1": "accessories", "cat2": "jewelry"}},
		{"url_part": "bags", "label": "bags", "cat_info": {"cat1": "accessories", "cat2": "bags"}},
		{"url_part": "belts", "label": "belts", "cat_info": {"cat1": "accessories", "cat2": "belts"}},
		{"url_part": "socks", "label": "socks", "cat_info": {"cat1": "accessories", "cat2": "socks"}},
		{"url_part": "hair-accessories", "label": "hair-accessories", "cat_info": {"cat1": "accessories", "cat2": "hair-accessories"}},
		{"url_part": "fun-stuff", "label": "fun-stuff", "cat_info": {"cat1": "accessories", "cat2": "fun-stuff"}},
		{"url_part": "spring-feels", "label": "Spring Feels", "cat_info": {"cat1": "", "cat2": ""}},
		{"url_part": "y2k-fever", "label": "Y2K Fever", "cat_info": {"cat1": "", "cat2": ""}},
		{"url_part": "sets-on-fire", "label": "Sets On Fire", "cat_info": {"cat1": "", "cat2": ""}},
		{"url_part": "brown-sauce", "label": "All Neutrals", "cat_info": {"cat1": "", "cat2": ""}},
		{"url_part": "home-mood", "label": "Comfy Queen", "cat_info": {"cat1": "", "cat2": ""}},
		{"url_part": "streetwear", "label": "Street Style", "cat_info": {"cat1": "", "cat2": ""}},
		{"url_part": "graphic-tees", "label": "Getting Graphic", "cat_info": {"cat1": "", "cat2": ""}},
		{"url_part": "girls-night-out", "label": "Girls Night Out", "cat_info": {"cat1": "", "cat2": ""}},
		{"url_part": "shop-tiktok", "label": "TIKTOK", "cat_info": {"cat1": "", "cat2": ""}}
	],
	"best_seller":{
		"url_part": "best-sellers"
	}
}
